DS202_lab3
…
school1 <- aggregate(dat$Edu, list(dat$Party), median, na.rm=TRUE)
HigherEdu <- filter(dat, Party == school1$Group.1 & Edu > school1$x)

## Warning in Party == school1$Group.1: longer object length is not a multiple of
## shorter object length

## Warning in Edu > school1$x: longer object length is not a multiple of shorter
## object length

HigherEdu

## # A tibble: 2,822 x 8
##    Mar        MaarAge        Age   Edu Sex    Party         Happy     Sports    
##    <chr>      <chr>        <dbl> <dbl> <chr>  <chr>         <chr>     <chr>     
##  1 Married    22              27    14 Male   Not str demo Not too  Not appli
##  2 Married    22              37    14 Male   Ind,near dem  Very hap Not appli
##  3 Divorced   28              49    15 Male   Ind,near rep  Very hap Not appli
##  4 Never mar Not applica    28    18 Female Other party   Pretty h Not appli
##  5 Married    22              57    15 Male   Not str repu Very hap Not appli
##  6 Married    22              29    16 Female Not str repu Pretty h Not appli
##  7 Married    24              46    15 Male   Ind,near rep  Pretty h Not appli
##  8 Never mar Not applica    67    16 Female Not str demo Pretty h Not appli
##  9 Married    20              31    14 Female Not str demo Pretty h Not appli
## 10 Never mar Not applica    22    15 Male   Ind,near rep  Pretty h Not appli
## #  with 2,812 more rows
…
